{
  "Building a Better Fedora Laptop with Framework | Fedora Podcast 44": "Building a Better Fedora Laptop with Framework {'|'} Fedora Podcast 44",
  "Chat Now": "Chat Now",
  "Communication channels": "Communication channels",
  "Contributing to Open Source with Fedora | Fedora Podcast 45": "Contributing to Open Source with Fedora {'|'} Fedora Podcast 45",
  "EPEL, the Ultimate Answer? | Fedora Podcast 42": "EPEL, the Ultimate Answer? {'|'} Fedora Podcast 42",
  "Extra Packages for Enterprise Linux | Fedora Podcast 26": "Extra Packages for Enterprise Linux {'|'} Fedora Podcast 26",
  "Fedora Chat": "Fedora Chat",
  "Fedora Cloud Edition | Fedora Podcast 27": "Fedora Cloud Edition {'|'} Fedora Podcast 27",
  "Fedora Discussion": "Fedora Discussion",
  "Fedora Docs | Fedora Podcast 34": "Fedora Docs {'|'} Fedora Podcast 34",
  "Fedora Linux 38 Released | Fedora Podcast 24": "Fedora Linux 38 Released {'|'} Fedora Podcast 24",
  "Fedora Linux 41 | Fedora Podcast 41": "Fedora Linux 41 {'|'} Fedora Podcast 41",
  "Fedora Podcast": "Fedora Podcast",
  "Fedora Quality Assurance | Fedora Podcast 38": "Fedora Quality Assurance {'|'} Fedora Podcast 38",
  "Fedora Slimbook | Fedora Podcast 31": "Fedora Slimbook {'|'} Fedora Podcast 31",
  "Fedora Spins: Budgie | Fedora Podcast 29": "Fedora Spins: Budgie {'|'} Fedora Podcast 29",
  "Fedora Websites 3.0 | Fedora Podcast 25": "Fedora Websites 3.0 {'|'} Fedora Podcast 25",
  "Fedora's Discourse-based discussion forum is a great place to connect with other Fedora Project users and contributors.": "Fedora's Discourse-based discussion forum is a great place to connect with other Fedora Project users and contributors.",
  "Fedora's Matrix-powered chat server is a great place to chat in real time with other Fedora Project users and contributors.": "Fedora's Matrix-powered chat server is a great place to chat in real time with other Fedora Project users and contributors.",
  "Gaming on Bazzite | Fedora Podcast 43": "Gaming on Bazzite {'|'} Fedora Podcast 43",
  "Gaming with ProtonGE | Fedora Podcast 40": "Gaming with ProtonGE {'|'} Fedora Podcast 40",
  "Getting Fedora with your Lenovo | Fedora Podcast 28": "Getting Fedora with your Lenovo {'|'} Fedora Podcast 28",
  "How Do You Fedora: Neal Gompa | Fedora Podcast 32": "How Do You Fedora: Neal Gompa {'|'} Fedora Podcast 32",
  "Silverblue and Immutable Desktops | Fedora Podcast 30": "Silverblue and Immutable Desktops {'|'} Fedora Podcast 30",
  "Take Fedora KDE for a Spin | Fedora Podcast 39": "Take Fedora KDE for a Spin {'|'} Fedora Podcast 39",
  "The Birthday Episode | Fedora Podcast 33": "The Birthday Episode {'|'} Fedora Podcast 33",
  "The Next Generation of Linux? | Fedora Podcast 36": "The Next Generation of Linux? {'|'} Fedora Podcast 36",
  "The Road Ahead for Fedora | Fedora Podcast 37": "The Road Ahead for Fedora {'|'} Fedora Podcast 37",
  "Visit Now": "Visit Now",
  "Welcome to the Podcast! | Fedora Podcast 23": "Welcome to the Podcast! {'|'} Fedora Podcast 23",
  "Who is the Fedora Community Architect? | Fedora Podcast 35": "Who is the Fedora Community Architect? {'|'} Fedora Podcast 35"
}