{
  "Application drawer for layer shell Wayland compositors.": "Application drawer for layer shell Wayland compositors.",
  "CLI application to control the NetworkManager configuration. It gives you the power of the nm-applet, but in the terminal.": "CLI application to control the NetworkManager configuration. It gives you the power of the nm-applet, but in the terminal.",
  "Configuration": "Configuration",
  "Download Now": "Download Now",
  "Fedora Miracle Window Manager Image": "Fedora Miracle Window Manager Image",
  "Fedora Miracle Window Manager Spin": "Fedora Miracle Window Manager Spin",
  "File manager for Linux and other Unix-like systems.": "File manager for Linux and other Unix-like systems.",
  "Foot is a fast, lightweight and minimalistic Wayland terminal emulator.": "Foot is a fast, lightweight and minimalistic Wayland terminal emulator.",
  "GTK3-based button bar for layer shell compositors.": "GTK3-based button bar for layer shell compositors.",
  "GTK3-based dock for Sway IPC Wayland compositors.": "GTK3-based dock for Sway IPC Wayland compositors.",
  "GTK3-based panel for Sway IPC Wayland compositors.": "GTK3-based panel for Sway IPC Wayland compositors.",
  "Going Online": "Going Online",
  "Just a click and you're connected to your wireless LAN router, or online via many supported 3G mobile broadband cards.": "Just a click and you're connected to your wireless LAN router, or online via many supported 3G mobile broadband cards.",
  "NetworkManager Applet": "NetworkManager Applet",
  "Screenshot of Fedora Miracle Window Manager desktop": "Screenshot of Fedora Miracle Window Manager desktop",
  "Simple screen locker.": "Simple screen locker.",
  "The Fedora Miracle Window Manager Spin provides the premiere Miracle window manager. It offers an appealing tiling experience to both novices and advanced users who prefer an easy keyboard-driven interaction model. Featuring lightweight applications for web browsing, text editing, and media playback, the Fedora Miracle Windows Manager Spin offers a complete experience with a smooth and cozy interface that anyone can use.": "The Fedora Miracle Window Manager Spin provides the premiere Miracle window manager. It offers an appealing tiling experience to both novices and advanced users who prefer an easy keyboard-driven interaction model. Featuring lightweight applications for web browsing, text editing, and media playback, the Fedora Miracle Windows Manager Spin offers a complete experience with a smooth and cozy interface that anyone can use.",
  "The popular and free web browser backed by Mozilla, a non-profit dedicated to internet health and privacy.": "The popular and free web browser backed by Mozilla, a non-profit dedicated to internet health and privacy.",
  "Upstream Documentation": "Upstream Documentation",
  "Utilities": "Utilities",
  "We're so glad you've decided to give Fedora Miracle Window Manager Spin a try. We know you'll love it.": "We're so glad you've decided to give Fedora Miracle Window Manager Spin a try. We know you'll love it.",
  "imv is a command line image viewer intended for use with tiling window managers.": "imv is a command line image viewer intended for use with tiling window managers.",
  "light gets and sets the screen back-light brightness on Linux.": "light gets and sets the screen back-light brightness on Linux.",
  "nwg-bar": "nwg-bar",
  "nwg-dock": "nwg-dock",
  "nwg-drawer": "nwg-drawer",
  "nwg-panel": "nwg-panel"
}