{
  "Destination": "",
  "Learn More": "",
  "Registration": "",
  "Fedora is sponsored by Red Hat.": "",
  "Learn more about the relationship between Red Hat and Fedora.": "",
  "Try it now.": "",
  "Download": "",
  "architecture": "",
  "Bare Metal & Virtualized": "",
  "Cloud Images": "",
  "Cloud Launchable": "",
  "Visit Fedora Youtube": "",
  "Screenshot": "",
  "Deadline:": "",
  "Panda, Beefy and Badger.": "",
  "BETA": "",
  "We take security seriously": "",
  "Once you have downloaded an image, be sure to verify it for both security and integrity.": "",
  "By calculating the image’s checksum on your own computer and comparing it to the original checksum, you can verify the image has not been tampered with or corrupted. Images are also gpg signed with Fedora keys to demonstrate their integrity.": "",
  "verify_button_instruction": "",
  "Watch the latest reviews ➔": "",
  "Get Started": "",
  "Learn more": "",
  "Become a Sponsor": "",
  "Fedora Logo": "",
  "Privacy Statement": "",
  "Legal": "",
  "Code of Conduct": "",
  "Sponsors": "",
  "Sponsored by Red Hat Logo": "",
  "Verify your download": "",
  "Import Fedora's GPG key(s)": "",
  "Verify the checksum file is valid": "",
  "Verify the checksum matches": "",
  "If the output states that the file is valid, then it's ready to use!": "",
  "Verify your download for security and integrity using the proper checksum and signature file. If there is a good signature from one of the Fedora keys, and the SHA256 checksum matches, then the download is valid.": "",
  "Verify the signature file is valid": "",
  "Release Notes": "",
  "It's your Operating System.": "",
  "100% Free & Open Source": "",
  "Latest release": "",
  "List Fedora's GPG key(s)": "",
  "You can verify the details of the GPG key(s) below.": "",
  "Verify the CHECKSUM file is valid": "",
  "Current GPG keys": "",
  "Obsolete GPG keys": "",
  "RELEASE DATE": "",
  "No files available for this version.": "",
  "Verify your download for security and integrity using the proper checksum file. If there is a good signature from one of the Fedora keys, and the SHA256 checksum matches, then the download is valid.": "",
  "CMS": "",
  "GitLab repo": "",
  "Fedora Everything": "",
  "We're so glad you've decided to give Fedora Everything a try. We know you'll love it.": "",
  "Download Now": "",
  "checksum file": "",
  "download_the_checksum_file": "Download the {checksum_file} into the same directory as the image you downloaded.",
  "signature": "",
  "download_the_checksum_and_signature": "Download the {checksum_file} and {signature} into the same directory as the image you downloaded.",
  "you_can_verify_the_GPG_details": "{icon}You can verify the details of the GPG key(s) {here}.",
  "verify_button_download": "Click the verify button {verify_button} to download the checksum file for your downloaded image.",
  "logo": "",
  "But wait! There's more.": "",
  "Need something a bit different? Check out our other downloads below, featuring alternative architectures, torrents and network-based installation images.": "",
  "Other Downloads": "",
  "here": "",
  "Contributor survey banner": "",
  "help_improve_this_website": "",
  "Page not found": "",
  "We think Panda lost it.": "",
  "Go Home": "",
  "placeholder": "",
  "Podcasts": "",
  "Alternative desktops for Fedora.": "",
  "Find a Fedora Spin to enhance your experience! You can find the latest versions of our spins here.": "",
  "Search with DuckDuckGo": "",
  "Latest news and publications from the Fedora Project": "",
  "Close": "",
  "Atomic Desktops for Fedora.": "",
  "Find a Fedora atomic desktop to enhance your experience! You can find the latest versions of our atomic desktops here.": "",
  "for Fedora Linux": "",
  "source:": "",
  "Launch on public cloud platforms": "",
  "Start Fedora Cloud instances on public cloud platforms.": "",
  "Select AWS EC2 region": "",
  "Launch instance": "",
  "Select the Azure region": "",
  "Show Beta downloads": "",
  "Atomic Desktops for Fedora": "",
  "What is Fedora Labs?": "",
  "Fedora Labs is a selection of curated bundles of purpose-driven software and content as curated and maintained by members of the Fedora Community. These may be installed as standalone full versions of Fedora or as add-ons to existing Fedora installations.": "",
  "x86_64-based instances": "",
  "ARM® aarch64-based instances": "",
  "List AWS EC2 region": "",
  "List Azure region": "",
  "Verify": "",
  "Show Downloads": "",
  "start_fcos_instances_cloud": "Start Fedora CoreOS {stream} instances on {arch} architecture on public cloud platforms.",
  "download_fcos_artifacts_baremetal": "Download Fedora CoreOS {stream} artifacts for {arch}.",
  "download_fcos_images_cloud": "Download Fedora CoreOS {stream} images for {arch} for cloud operators.",
  "Details": "",
  "Launch": "",
  "Bare Metal": "",
  "Virtualized": "",
  "Back to Top": "",
  "Image family:": "",
  "Latest image:": "",
  "pick_your_architecture": "Pick your {architecture}"
}
